16                     
sym_fod1='X' sym_fod2='He'
  N       0.00000000     0.00000000    -1.00000000
  N       0.00000000     0.00000000     1.00000000
  X       0.00000000     0.00000000    -1.00000000
  X      -0.14665766     0.48383802    -0.82126203
  X       0.49234100    -0.11490562    -0.82124878
  X       0.00000219    -0.00000953    -1.53624153
  X      -0.34568553    -0.36892288    -0.82124767
  X       0.00000000     0.00000000     1.00000000
  X       0.00000053    -0.00001802     1.53624151
  X       0.50556535     0.00281932     0.82125242
  X      -0.25521934     0.43643195     0.82126774
  X      -0.25034653    -0.43923325     0.82123831
  He      0.00000000     0.00000000    -1.00000000
  He      0.00000000     0.00000000    -0.48439639
  He      0.00000000     0.00000000     1.00000000
  He      0.00000000     0.00000000     1.51560361
