16                     
sym_fod1='X' sym_fod2='He'
  N       0.00000000     0.00000000    -1.00000000
  N       0.00000000     0.00000000     1.00000000
  X       0.00000000     0.00000000    -1.00000000
  X       0.00000000     0.65000000     0.00000000
  X       0.56291650    -0.32500000    -0.00000000
  X      -0.56291650    -0.32500000    -0.00000000
  X       0.00000000     0.00000000    -2.00000000
  X       0.00000000     0.00000000     1.00000000
  X       0.00000000     0.00000000     2.00000000
  He      0.00000000     0.00000000    -1.00000000
  He      0.00000000     0.00000000    -2.00000000
  He      0.00000000     0.00000000     1.00000000
  He     -0.56291650    -0.32500000    -0.00000000
  He      0.56291650    -0.32500000    -0.00000000
  He      0.00000000     0.65000000     0.00000000
  He      0.00000000     0.00000000     2.00000000
